1.42968297005
1.40526890755
1.35742807388
1.50387692451
1.39511203766
1.33341193199
1.41919803619
1.2887980938
1.31926202774
1.29454088211
1.34040212631
1.35450291634
1.35067200661
1.51143598557
1.30510902405
1.34548997879
1.38392996788
1.29517388344
1.43229985237
1.29895615578
1.1789689064
1.31734085083
1.28369116783
1.53722310066
1.28953814507
1.41938591003
1.45726680756
1.20595502853
1.38006496429
1.35709810257
1.36099696159
1.28789401054
1.41041207314
1.36052799225
1.38989901543
1.35377192497
1.36273002625
1.39979505539
1.30170989037
1.28070092201
1.29406189919
1.3461830616
1.28100895882
1.34033083916
1.32503390312
1.28747391701
1.35455417633
1.29983115196
1.22489690781
1.22375512123
1.40175795555
1.3180038929
1.5072619915
1.38917899132
1.32488799095
1.38125109673
1.40826201439
1.1786429882
1.37576699257
1.1620759964
1.26270318031
1.40279984474
1.27506303787
1.31672811508
1.29862308502
1.44325900078
1.37101697922
1.21028804779
1.3569188118
1.11350107193
1.2339990139
1.35034799576
1.38535118103
1.31173110008
1.35605096817
1.29800987244
1.33682489395
1.26202011108
1.34973692894
1.39292788506
1.32378005981
1.26709198952
1.3724770546
1.39819502831
1.37362909317
1.28445100784
1.33127212524
1.33401989937
1.48482489586
1.39657711983
1.31959295273
1.25500488281
1.28743314743
1.26180315018
1.42237091064
1.36490797997
1.4964261055
1.41133284569
1.21693587303
1.35782885551
1.37670207024
1.2955520153
1.2937271595
1.37520098686
1.37430882454
1.39480686188
1.26146483421
1.36942005157
1.39119100571
1.46725797653
1.29273700714
1.32029294968
1.36951994896
1.32443094254
1.33734297752
1.24518585205
1.35229611397
1.35737800598
1.25084805489
1.26656889915
1.40741896629
1.33408308029
1.40991902351
1.35711598396
1.30833697319
1.30901098251
1.27612304688
1.35646796227
1.27727198601
1.32861614227
1.22283697128
1.24700689316
1.43906283379
1.35385203362
1.31311488152
1.33397102356
1.22836709023
1.34509778023
1.32931303978
1.26521015167
1.36603307724
1.25410795212
1.36668801308
1.19577383995
1.34021306038
1.34906291962
1.25086808205
1.30378699303
1.31015300751
1.42395210266
1.19299387932
1.2981979847
1.4333782196
1.27332401276
1.33126592636
1.31758213043
1.31823706627
1.37804293633
1.34850597382
1.34845614433
1.2826461792
1.31121993065
1.30888915062
1.33781599998
1.52762198448
1.32534408569
1.35519099236
1.36368989944
1.2834880352
1.38644003868
1.37453794479
1.3166539669
1.25369620323
1.33467698097
1.2897439003
1.37457299232
1.31354308128
1.26429700851
1.23328399658
1.24310684204
1.33016300201
1.28862810135
1.34121179581
1.30548596382
1.3671631813
1.35820603371
1.27597689629
1.22221422195
1.31531119347
1.21180486679
1.4194560051
1.25073885918
1.3508348465
1.21734786034
1.48649287224
1.36941814423
1.19447588921
1.14777994156
1.31958603859
1.46138095856
