1.6815559864
1.79543495178
1.65567493439
1.53628897667
1.68430709839
1.65404295921
1.67082595825
1.47260093689
1.68230390549
1.6325750351
1.57557892799
1.64839696884
1.66315603256
1.59478998184
1.72080612183
1.58162808418
1.72116518021
1.66751694679
1.64006686211
1.66790390015
1.58511686325
1.79751300812
1.61482310295
1.52245211601
1.69039392471
1.74505281448
1.69735097885
1.62706494331
1.69531393051
1.49061894417
1.72166800499
1.56040000916
1.79092383385
1.59648418427
1.59584498405
1.63075399399
1.69550895691
1.60533094406
1.63172101974
1.48843312263
1.66955494881
1.60555291176
1.66466116905
1.68981099129
1.66686296463
1.62950015068
1.6307489872
1.67154097557
1.56623888016
1.5809211731
1.67914414406
1.45643115044
1.63546895981
1.65092992783
1.62566494942
1.69258308411
1.52002000809
1.60817599297
1.63683891296
1.6943731308
1.78802609444
1.63335394859
1.56361699104
1.67069387436
1.68584918976
1.60601496696
1.44069218636
1.68995404243
1.59461307526
1.66211700439
1.63525104523
1.64546895027
1.56816196442
1.53893208504
1.73605513573
1.59524202347
1.63897800446
1.8017039299
1.69170308113
1.56605696678
1.68021607399
1.53601408005
1.63835382462
1.78093194962
1.80205488205
1.58949303627
1.56046199799
1.5608189106
1.69279003143
1.59228801727
1.63415908813
1.62740087509
1.8165769577
1.68160295486
1.65621399879
1.61339592934
1.71700620651
1.76407718658
1.64199399948
1.71078205109
1.6939470768
1.47230601311
1.6320540905
1.55756807327
1.62410593033
1.69439792633
1.6198220253
1.7069478035
1.56904983521
1.59024620056
1.67988204956
1.58784890175
1.62667298317
1.64176607132
1.55723690987
1.61941003799
1.69702601433
1.71767807007
1.65678906441
1.49493312836
1.7303609848
1.65532302856
1.55352807045
1.61582994461
1.73732209206
1.64408111572
1.59922194481
1.68589997292
1.57440900803
1.63043498993
1.71808695793
1.59340000153
1.6638917923
1.58542990685
1.6891579628
1.64707398415
1.79517388344
1.70699501038
1.5655579567
1.50611400604
1.5713801384
1.57727694511
1.72696185112
1.63641405106
1.58647489548
1.64138698578
1.72244596481
1.61033391953
1.68384122849
1.56512594223
1.66661000252
1.69822597504
1.68534493446
1.61991786957
1.65617084503
1.67876291275
1.80054688454
1.63759899139
1.76617193222
1.56290197372
1.69404816628
1.58464312553
1.62840199471
1.78424620628
1.70115494728
1.68243217468
1.73372602463
1.67859888077
1.63588500023
1.59004497528
1.65195798874
1.74067997932
1.61709213257
1.75575613976
1.60289597511
1.55471992493
1.59994101524
1.63001799583
1.70251512527
1.62863302231
1.58341002464
1.68260478973
1.66210579872
1.54518604279
1.46572494507
1.59121584892
1.63279485703
1.63840103149
1.59550094604
1.62536478043
1.67403793335
1.55015707016
1.61868000031
1.61089897156
1.60304188728
1.55299592018
1.7183110714
1.66033101082
1.522356987
1.71442389488
