1.53927993774
1.33858704567
1.31706809998
1.43517994881
1.27711105347
1.30452299118
1.37895298004
1.4052670002
1.32674789429
1.49050688744
1.36141896248
1.39331817627
1.27599716187
1.35961890221
1.36446785927
1.27096796036
1.38580203056
1.38769602776
1.34681487083
1.34471297264
1.28680801392
1.37876701355
1.39206218719
1.32979989052
1.3133149147
1.29078912735
1.36828994751
1.31035089493
1.30344414711
1.33687114716
1.34495997429
1.28813886642
1.28708219528
1.27723693848
1.29846000671
1.22103691101
1.380464077
1.25149893761
1.40023803711
1.27064299583
1.28435993195
1.30451321602
1.27214407921
1.28495192528
1.3066971302
1.35799407959
1.32474899292
1.28055381775
1.36212992668
1.34867501259
1.3486559391
1.28004217148
1.3015370369
1.27551817894
1.35832309723
1.36751794815
1.34681987762
1.32006883621
1.31531000137
1.33261704445
1.29219698906
1.3393008709
1.33792901039
1.28482604027
1.35299611092
1.29864788055
1.30859303474
1.42991185188
1.34986400604
1.26811099052
1.28838801384
1.37230110168
1.27948689461
1.26818609238
1.31815910339
1.37795901299
1.32009887695
1.21973085403
1.35255408287
1.39415693283
1.30952119827
1.24529981613
1.38041090965
1.22785115242
1.2993748188
1.30868077278
1.2921898365
1.34621119499
1.35314893723
1.31501197815
1.33161497116
1.34062695503
1.29716992378
1.31487679482
1.39321899414
1.26530194283
1.37120199203
1.31685614586
1.24567389488
1.34020781517
1.22974514961
1.28751301765
1.32217001915
1.3054060936
1.37678098679
1.3806180954
1.2738339901
1.38266801834
1.2710211277
1.25386404991
1.24938893318
1.21903800964
1.29789280891
1.37099599838
1.30801391602
1.30180907249
1.32308411598
1.35929894447
1.36402702332
1.30441212654
1.24962997437
1.22651195526
1.31044888496
1.28874897957
1.30599212646
1.32944107056
1.3987159729
1.34700584412
1.30088686943
1.29596996307
1.30919504166
1.31139397621
1.30767607689
1.28760194778
1.39112281799
1.39170193672
1.42865800858
1.37057495117
1.27020001411
1.3065071106
1.3818821907
1.34105300903
1.34671711922
1.24745392799
1.26690387726
1.34330201149
1.27585101128
1.37706303596
1.33954811096
1.24914002419
1.25759410858
1.37321209908
1.40422391891
1.31501317024
1.25761604309
1.44520688057
1.40826916695
1.31613111496
1.35896205902
1.33314490318
1.30452013016
1.29686617851
1.22649788857
1.35242009163
1.38073396683
1.32665896416
1.22368597984
1.25817704201
1.34100985527
1.29407811165
1.27070307732
1.41356897354
1.26009202003
1.33635807037
1.29737782478
1.41579318047
1.39788508415
1.39828205109
1.35929989815
1.28174901009
1.3075671196
1.32928586006
1.31905603409
1.29797792435
1.25877809525
1.29556393623
1.27876901627
1.29353904724
1.44832801819
1.26576900482
1.31445503235
1.36596703529
1.27435517311
1.38151097298
1.21371984482
1.32989215851
1.31574702263
1.38346481323
1.31448578835
1.28450202942
