1.46773505211
1.40186500549
1.40861296654
1.27677202225
1.25619792938
1.37704396248
1.37302684784
1.34777402878
1.34972906113
1.3389840126
1.30620884895
1.33641290665
1.29066610336
1.34788703918
1.32849407196
1.25531792641
1.3516201973
1.31715917587
1.29919600487
1.33907389641
1.28941202164
1.26437902451
1.32536506653
1.45853805542
1.47856903076
1.29778718948
1.33714604378
1.40361690521
1.27603602409
1.26721596718
1.37421488762
1.25760006905
1.31771993637
1.30623292923
1.31556510925
1.31890010834
1.3123960495
1.38260889053
1.3443710804
1.33775496483
1.34138321877
1.418653965
1.3117711544
1.31049203873
1.33146595955
1.40141201019
1.34710001945
1.30534386635
1.37177395821
1.30106186867
1.31955885887
1.30567097664
1.33150291443
1.41479492188
1.35170698166
1.33309698105
1.33512496948
1.31586194038
1.34709405899
1.3649930954
1.39761018753
1.29536008835
1.34683489799
1.32207322121
1.31165504456
1.37145185471
1.3088350296
1.2845389843
1.27860999107
1.24482989311
1.32792186737
1.39117503166
1.28467583656
1.26419210434
1.35277485847
1.32829093933
1.33729696274
1.41778993607
1.32998180389
1.34822487831
1.26897096634
1.24030995369
1.36248683929
1.33443713188
1.36804294586
1.28040003777
1.3309071064
1.31252908707
1.30742502213
1.30722379684
1.35552597046
1.28940296173
1.25781488419
1.33644104004
1.34306383133
1.33365607262
1.33282995224
1.31947088242
1.31271696091
1.35467100143
1.25661897659
1.3102850914
1.2472949028
1.34202194214
1.35687184334
1.34069108963
1.29767107964
1.27918410301
1.30661797523
1.31024694443
1.27750492096
1.36193013191
1.35906195641
1.3160738945
1.39486813545
1.40844702721
1.2982571125
1.29921102524
1.29835605621
1.38813304901
1.30535101891
1.4143280983
1.2744269371
1.34540390968
1.32241296768
1.38637185097
1.35592007637
1.33126497269
1.36597013474
1.26773405075
1.24428391457
1.29746794701
1.25448083878
1.33925199509
1.35284399986
1.3897190094
1.30823993683
1.34495687485
1.33184909821
1.28175711632
1.35478186607
1.37167286873
1.38536381721
1.39653086662
1.31501507759
1.2922809124
1.39256095886
1.29584002495
1.32403802872
1.33109998703
1.32887291908
1.28670215607
1.37605285645
1.30002307892
1.26741695404
1.44016504288
1.5769469738
1.32742285728
1.31154704094
1.39827489853
1.30284905434
1.40810084343
1.32682609558
1.41125798225
1.38813090324
1.27972912788
1.33525705338
1.30331707001
1.38456106186
1.30278086662
1.29575896263
1.25975179672
1.29714894295
1.27192687988
1.29467606544
1.36260390282
1.32760095596
1.25717306137
1.31607818604
1.34837603569
1.24475288391
1.27033209801
1.3694357872
1.30417990685
1.39032387733
1.34893608093
1.330119133
1.33587193489
1.31514286995
1.31045222282
1.24862980843
1.33368206024
1.39097714424
1.29390907288
1.33844304085
1.30543398857
1.30837798119
1.29697394371
1.38430595398
1.26050901413
