1.22680187225
1.2720720768
1.2357711792
1.09383201599
1.12152600288
1.21183395386
1.29918408394
1.16361379623
1.11854505539
1.15545296669
1.1620349884
1.20030021667
1.14094686508
1.17447209358
1.18203806877
1.22416591644
1.17379307747
1.16981387138
1.1017408371
1.18001198769
1.28850317001
1.33934998512
1.09563493729
1.15310001373
1.10810685158
1.19482707977
1.05267596245
1.1369972229
1.16731405258
1.23509383202
1.10084199905
1.01423311234
1.21058917046
1.21648311615
1.00204181671
1.25428795815
1.16365408897
1.14556407928
1.20068311691
1.07739281654
1.19267320633
1.10119509697
1.13606786728
1.22894001007
1.23849606514
1.14744591713
1.20328497887
1.102216959
1.22074508667
1.0942029953
1.24279689789
1.27215003967
1.29329609871
1.18987989426
1.13465595245
1.1153011322
1.25790309906
1.23278999329
1.18872284889
1.17782998085
1.36147117615
1.25731492043
1.12378883362
1.27651286125
1.11230421066
1.146007061
1.12944197655
1.093791008
1.19451189041
1.19737815857
1.12102413177
1.16377687454
1.14329409599
1.14946293831
1.22203803062
1.16055011749
1.15792107582
1.22781801224
1.15561199188
1.02694702148
1.36678719521
1.06462097168
1.21468186378
1.15901303291
1.20022988319
1.06251597404
1.0414018631
1.15181088448
1.06687688828
1.21709299088
1.10095000267
1.18892121315
1.19952178001
1.09988021851
1.01188015938
1.0991859436
1.31808209419
1.09963083267
1.01665306091
1.07378196716
1.32968616486
1.19991898537
1.21582818031
1.17640089989
1.22451901436
1.08122086525
1.12067294121
1.12667798996
1.05246710777
1.20783996582
1.26635193825
1.27691602707
1.2425339222
1.16832995415
1.16019797325
1.07966208458
1.19184613228
1.10481715202
1.19448304176
1.21901297569
1.26296496391
1.20677995682
1.16723299026
1.19723105431
1.14967012405
1.41179394722
1.13656020164
1.18179512024
1.21775507927
1.22876691818
1.08611798286
1.02286911011
1.18085980415
1.0794570446
1.22949099541
1.1165189743
1.1569018364
0.998111963272
1.05743718147
1.02592682838
1.11706805229
1.16565704346
1.1575729847
1.19584393501
1.21708202362
1.18125200272
1.11339712143
1.11968111992
1.16399502754
1.19542717934
1.06665706635
1.2179338932
1.18009710312
1.12089705467
1.17735409737
1.18140792847
1.17458081245
1.23998308182
1.12877488136
1.24832010269
1.25029206276
1.19224095345
1.18368005753
1.05768799782
1.04982995987
1.14319396019
1.14359307289
1.01609683037
1.15396404266
1.13722491264
1.15417909622
1.15214896202
1.22637605667
1.15599012375
1.24300289154
1.05210089684
1.18112111092
1.22316408157
1.21028804779
1.20802402496
1.1007130146
1.15585303307
1.1051428318
1.36732816696
1.21393179893
1.13576221466
1.18770003319
1.1047129631
1.24358701706
1.19895505905
1.04220795631
1.15308189392
1.12141990662
1.15929102898
1.1572740078
1.10545706749
1.12507200241
1.09186983109
1.2002120018
1.05702495575
